BAN400 - R Programming for Data Science – iterations
…
# A tibble: 1 × 4
  id           name                latestData   location        
  <chr>        <chr>               <named list> <named list>    
1 90808V705074 Fv2160 Turistsenter <chr [1]>    <named list [1]>

# We now want to apply this as_tibble transformation to each of the stations, 
# and combine them in a single data frame. We could do this with lapply, 
# and then bind toghether the rows: 
lapply(stations[[1]], . %>% as_tibble) |> 
  bind_rows()

# A tibble: 6,224 × 4
   id            name                latestData   location        
   <chr>         <chr>               <named list> <named list>    
 1 90808V705074  Fv2160 Turistsenter <chr [1]>    <named list [1]>
 2 10035V705357  Fv2172 Øverbygda    <chr [1]>    <named list [1]>
 3 85477V1175609 Nedre Bøkeligate    <chr [1]>    <named list [1]>
 4 93571V1060693 Fv255 Gausdalsvegen <chr [1]>    <named list [1]>
 5 43084V72828   Skarsem             <chr [1]>    <named list [1]>
 6 35037V578604  Langhammer          <chr [1]>    <named list [1]>
 7 91860V444292  Haugland            <chr [1]>    <named list [1]>
 8 01099V444361  Langset             <chr [1]>    <named list [1]>
 9 31744V443465  Grepperud           <chr [1]>    <named list [1]>
10 05768V444258  Torp                <chr [1]>    <named list [1]>
# ℹ 6,214 more rows
Exercise:

Transform the list into a data frame, with at id and name as columns, and one row per station. We can fix the date time and locations columns later, but use one of the map-functions from purrr.

Solution

# Using the map_df-function we traverse all the entries in the stations list, 
# and transform these lists to data frames. 
# 
# There is still some work left to do with the date time and location 
# columns. As you can see below, they are still in a list format. 
stations[[1]] |> 
  map_df(~as_tibble(.))

# A tibble: 6,224 × 4
   id            name                latestData   location        
   <chr>         <chr>               <named list> <named list>    
 1 90808V705074  Fv2160 Turistsenter <chr [1]>    <named list [1]>
 2 10035V705357  Fv2172 Øverbygda    <chr [1]>    <named list [1]>
 3 85477V1175609 Nedre Bøkeligate    <chr [1]>    <named list [1]>
 4 93571V1060693 Fv255 Gausdalsvegen <chr [1]>    <named list [1]>
 5 43084V72828   Skarsem             <chr [1]>    <named list [1]>
 6 35037V578604  Langhammer          <chr [1]>    <named list [1]>
 7 91860V444292  Haugland            <chr [1]>    <named list [1]>
 8 01099V444361  Langset             <chr [1]>    <named list [1]>
 9 31744V443465  Grepperud           <chr [1]>    <named list [1]>
10 05768V444258  Torp                <chr [1]>    <named list [1]>
# ℹ 6,214 more rows
…
stations[[1]] |> 
  map_df(~as_tibble(.)) |> 
  mutate(latestData = map_chr(latestData, unlist_safe))

# A tibble: 6,224 × 4
   id            name                latestData                location        
   <chr>         <chr>               <chr>                     <named list>    
 1 90808V705074  Fv2160 Turistsenter 2023-06-07T00:00:00+02:00 <named list [1]>
 2 10035V705357  Fv2172 Øverbygda    2023-06-07T00:00:00+02:00 <named list [1]>
 3 85477V1175609 Nedre Bøkeligate    2023-04-03T00:00:00+02:00 <named list [1]>
 4 93571V1060693 Fv255 Gausdalsvegen 2023-06-28T00:00:00+02:00 <named list [1]>
 5 43084V72828   Skarsem             2023-07-20T00:00:00+02:00 <named list [1]>
 6 35037V578604  Langhammer          2023-07-04T00:00:00+02:00 <named list [1]>
 7 91860V444292  Haugland            2023-06-14T00:00:00+02:00 <named list [1]>
 8 01099V444361  Langset             2023-06-06T00:00:00+02:00 <named list [1]>
 9 31744V443465  Grepperud           2023-06-14T00:00:00+02:00 <named list [1]>
10 05768V444258  Torp                2023-06-14T00:00:00+02:00 <named list [1]>
# ℹ 6,214 more rows

# Alternatively, we can use the defaults in map_chr. It will 
# now have a safe fallback value it can use if it doesn't 
# find the element we are looking for in latestData. 
# A simple solution is to use the .default-argument, and set this to missing: 
stations[[1]] |> 
    map_df(~as_tibble(.)) |> 
    mutate(latestData = map_chr(latestData,1, .default=NA_character_)) 

# A tibble: 6,224 × 4
   id            name                latestData                location        
   <chr>         <chr>               <chr>                     <named list>    
 1 90808V705074  Fv2160 Turistsenter 2023-06-07T00:00:00+02:00 <named list [1]>
 2 10035V705357  Fv2172 Øverbygda    2023-06-07T00:00:00+02:00 <named list [1]>
 3 85477V1175609 Nedre Bøkeligate    2023-04-03T00:00:00+02:00 <named list [1]>
 4 93571V1060693 Fv255 Gausdalsvegen 2023-06-28T00:00:00+02:00 <named list [1]>
 5 43084V72828   Skarsem             2023-07-20T00:00:00+02:00 <named list [1]>
 6 35037V578604  Langhammer          2023-07-04T00:00:00+02:00 <named list [1]>
 7 91860V444292  Haugland            2023-06-14T00:00:00+02:00 <named list [1]>
 8 01099V444361  Langset             2023-06-06T00:00:00+02:00 <named list [1]>
 9 31744V443465  Grepperud           2023-06-14T00:00:00+02:00 <named list [1]>
10 05768V444258  Torp                2023-06-14T00:00:00+02:00 <named list [1]>
# ℹ 6,214 more rows

1.2 Transforming time

# Next, let's format the date format. Date formats can be tricky, but is
# an obstacle you just have to learn to work with. We can reformat the 
# latestData column into a date by simply using as.Date - however - 
# we now have lost information on the time of day. Let's see if we 
# can retain all the information in the column. 
stations[[1]] |> 
  map_df(~as_tibble(.)) |> 
  mutate(latestData = map_chr(latestData, 1, .default=NA_character_)) |> 
  mutate(latestData = as.Date(latestData))

# A tibble: 6,224 × 4
   id            name                latestData location        
   <chr>         <chr>               <date>     <named list>    
 1 90808V705074  Fv2160 Turistsenter 2023-06-07 <named list [1]>
 2 10035V705357  Fv2172 Øverbygda    2023-06-07 <named list [1]>
 3 85477V1175609 Nedre Bøkeligate    2023-04-03 <named list [1]>
 4 93571V1060693 Fv255 Gausdalsvegen 2023-06-28 <named list [1]>
 5 43084V72828   Skarsem             2023-07-20 <named list [1]>
 6 35037V578604  Langhammer          2023-07-04 <named list [1]>
 7 91860V444292  Haugland            2023-06-14 <named list [1]>
 8 01099V444361  Langset             2023-06-06 <named list [1]>
 9 31744V443465  Grepperud           2023-06-14 <named list [1]>
10 05768V444258  Torp                2023-06-14 <named list [1]>
# ℹ 6,214 more rows

# There are several functions we can use to transform the string into
# a date time variable. as_datetime in lubridate works in this case. 
# Note that the interpretation of dates may be dependent on the time zone
# settings on your laptop. Here, we are explicitly stating that we want the
# a Europe/Berlin tz on the variable: 
stations[[1]] |> 
  map_df( ~ as_tibble(.)) |> 
  mutate(latestData = map_chr(latestData, 1, .default = NA_character_)) |> 
  mutate(latestData = as_datetime(latestData, tz = "Europe/Berlin")) 

# A tibble: 6,224 × 4
   id            name                latestData          location        
   <chr>         <chr>               <dttm>              <named list>    
 1 90808V705074  Fv2160 Turistsenter 2023-06-07 00:00:00 <named list [1]>
 2 10035V705357  Fv2172 Øverbygda    2023-06-07 00:00:00 <named list [1]>
 3 85477V1175609 Nedre Bøkeligate    2023-04-03 00:00:00 <named list [1]>
 4 93571V1060693 Fv255 Gausdalsvegen 2023-06-28 00:00:00 <named list [1]>
 5 43084V72828   Skarsem             2023-07-20 00:00:00 <named list [1]>
 6 35037V578604  Langhammer          2023-07-04 00:00:00 <named list [1]>
 7 91860V444292  Haugland            2023-06-14 00:00:00 <named list [1]>
 8 01099V444361  Langset             2023-06-06 00:00:00 <named list [1]>
 9 31744V443465  Grepperud           2023-06-14 00:00:00 <named list [1]>
10 05768V444258  Torp                2023-06-14 00:00:00 <named list [1]>
# ℹ 6,214 more rows
…
43084V72828
Skarsem
2023-07-20
62.60916
9.613218

35037V578604
Langhammer
2023-07-04
64.12107
11.597817

# A tibble: 6,224 × 6
   id            name               latestData          location       lat   lon
   <chr>         <chr>              <dttm>              <named list> <dbl> <dbl>
 1 90808V705074  Fv2160 Turistsent… 2023-06-07 00:00:00 <named list>  61.3 12.2 
 2 10035V705357  Fv2172 Øverbygda   2023-06-07 00:00:00 <named list>  61.3 12.3 
 3 85477V1175609 Nedre Bøkeligate   2023-04-03 00:00:00 <named list>  59.1 10.0 
 4 93571V1060693 Fv255 Gausdalsveg… 2023-06-28 00:00:00 <named list>  61.2 10.3 
 5 43084V72828   Skarsem            2023-07-20 00:00:00 <named list>  62.6  9.61
 6 35037V578604  Langhammer         2023-07-04 00:00:00 <named list>  64.1 11.6 
 7 91860V444292  Haugland           2023-06-14 00:00:00 <named list>  59.8 11.4 
 8 01099V444361  Langset            2023-06-06 00:00:00 <named list>  60.4 11.2 
 9 31744V443465  Grepperud          2023-06-14 00:00:00 <named list>  59.7 11.4 
10 05768V444258  Torp               2023-06-14 00:00:00 <named list>  59.7 11.4 
# ℹ 6,214 more rows

# A tibble: 6,224 × 5
   id            name                latestData            lat   lon
   <chr>         <chr>               <dttm>              <dbl> <dbl>
 1 90808V705074  Fv2160 Turistsenter 2023-06-07 00:00:00  61.3 12.2 
 2 10035V705357  Fv2172 Øverbygda    2023-06-07 00:00:00  61.3 12.3 
 3 85477V1175609 Nedre Bøkeligate    2023-04-03 00:00:00  59.1 10.0 
 4 93571V1060693 Fv255 Gausdalsvegen 2023-06-28 00:00:00  61.2 10.3 
 5 43084V72828   Skarsem             2023-07-20 00:00:00  62.6  9.61
 6 35037V578604  Langhammer          2023-07-04 00:00:00  64.1 11.6 
 7 91860V444292  Haugland            2023-06-14 00:00:00  59.8 11.4 
 8 01099V444361  Langset             2023-06-06 00:00:00  60.4 11.2 
 9 31744V443465  Grepperud           2023-06-14 00:00:00  59.7 11.4 
10 05768V444258  Torp                2023-06-14 00:00:00  59.7 11.4 
# ℹ 6,214 more rows
…
stations[[1]] |> 
  map_dfr(as_tibble) |>  
  mutate(latestData = map_chr(latestData, 1, .default = ""))  |> 
  mutate(latestData = as_datetime(latestData, tz = "Europe/Berlin"))  |> 
  mutate(location = map(location, unlist)) |>  
  mutate(
    lat = map_dbl(location, "latLon.lat"),
    lon = map_dbl(location, "latLon.lon")
  ) %>% 
  select(-location)

# A tibble: 6,224 × 5
   id            name                latestData            lat   lon
   <chr>         <chr>               <dttm>              <dbl> <dbl>
 1 90808V705074  Fv2160 Turistsenter 2023-06-07 00:00:00  61.3 12.2 
 2 10035V705357  Fv2172 Øverbygda    2023-06-07 00:00:00  61.3 12.3 
 3 85477V1175609 Nedre Bøkeligate    2023-04-03 00:00:00  59.1 10.0 
 4 93571V1060693 Fv255 Gausdalsvegen 2023-06-28 00:00:00  61.2 10.3 
 5 43084V72828   Skarsem             2023-07-20 00:00:00  62.6  9.61
 6 35037V578604  Langhammer          2023-07-04 00:00:00  64.1 11.6 
 7 91860V444292  Haugland            2023-06-14 00:00:00  59.8 11.4 
 8 01099V444361  Langset             2023-06-06 00:00:00  60.4 11.2 
 9 31744V443465  Grepperud           2023-06-14 00:00:00  59.7 11.4 
10 05768V444258  Torp                2023-06-14 00:00:00  59.7 11.4 
# ℹ 6,214 more rows

## Alternatively, we can use unnest_wider twice. This one does some work
## for us, and gives the same result: 

stations[[1]] |> 
  map_df( ~ as_tibble(.)) |> 
  mutate(latestData = map_chr(latestData, 1, .default = NA_character_)) |> 
  mutate(latestData = as_datetime(latestData, tz = "Europe/Berlin"))  |> 
  unnest_wider(location) |> 
  unnest_wider(latLon)

# A tibble: 6,224 × 5
   id            name                latestData            lat   lon
   <chr>         <chr>               <dttm>              <dbl> <dbl>
 1 90808V705074  Fv2160 Turistsenter 2023-06-07 00:00:00  61.3 12.2 
 2 10035V705357  Fv2172 Øverbygda    2023-06-07 00:00:00  61.3 12.3 
 3 85477V1175609 Nedre Bøkeligate    2023-04-03 00:00:00  59.1 10.0 
 4 93571V1060693 Fv255 Gausdalsvegen 2023-06-28 00:00:00  61.2 10.3 
 5 43084V72828   Skarsem             2023-07-20 00:00:00  62.6  9.61
 6 35037V578604  Langhammer          2023-07-04 00:00:00  64.1 11.6 
 7 91860V444292  Haugland            2023-06-14 00:00:00  59.8 11.4 
 8 01099V444361  Langset             2023-06-06 00:00:00  60.4 11.2 
 9 31744V443465  Grepperud           2023-06-14 00:00:00  59.7 11.4 
10 05768V444258  Torp                2023-06-14 00:00:00  59.7 11.4 
# ℹ 6,214 more rows
