iterations-wip – BAN400 - R Programming for Data Science
…
# A tibble: 1 × 4
  id            name       latestData   location        
  <chr>         <chr>      <named list> <named list>    
1 52742V2282262 ØRBEKK EV6 <chr [1]>    <named list [1]>

# We now want to apply this as_tibble transformation to each of the stations, 
# and combine them in a single data frame. We could do this with lapply, 
# and then bind toghether the rows: 
lapply(stations[[1]], . %>% as_tibble) |> 
  bind_rows()

# A tibble: 8,116 × 4
   id            name            latestData   location        
   <chr>         <chr>           <named list> <named list>    
 1 52742V2282262 ØRBEKK EV6      <chr [1]>    <named list [1]>
 2 41517V704478  BASTERUD        <chr [1]>    <named list [1]>
 3 01050V1126115 Trollvika       <chr [1]>    <named list [1]>
 4 24748V22148   Pinesund        <chr [1]>    <named list [1]>
 5 11446V1175840 Melsomvik       <chr [1]>    <named list [1]>
 6 99015V249528  Hjelset øst     <chr [1]>    <named list [1]>
 7 78755V249572  Sogge           <chr [1]>    <named list [1]>
 8 83652V319725  Strandgata nord <chr [1]>    <named list [1]>
 9 51934V2523546 Snarud nord     <chr [1]>    <named list [1]>
10 65271V443150  Vestby syd ny   <chr [1]>    <named list [1]>
# ℹ 8,106 more rows
Exercise:

Transform the list into a data frame, with at id and name as columns, and one row per station. We can fix the date time and locations columns later, but use one of the map-functions from purrr.

Solution

# Using the map_df-function we traverse all the entries in the stations list, 
# and transform these lists to data frames. 
# 
# There is still some work left to do with the date time and location 
# columns. As you can see below, they are still in a list format. 
stations[[1]] |> 
  map_df(~as_tibble(.))

# A tibble: 8,116 × 4
   id            name            latestData   location        
   <chr>         <chr>           <named list> <named list>    
 1 52742V2282262 ØRBEKK EV6      <chr [1]>    <named list [1]>
 2 41517V704478  BASTERUD        <chr [1]>    <named list [1]>
 3 01050V1126115 Trollvika       <chr [1]>    <named list [1]>
 4 24748V22148   Pinesund        <chr [1]>    <named list [1]>
 5 11446V1175840 Melsomvik       <chr [1]>    <named list [1]>
 6 99015V249528  Hjelset øst     <chr [1]>    <named list [1]>
 7 78755V249572  Sogge           <chr [1]>    <named list [1]>
 8 83652V319725  Strandgata nord <chr [1]>    <named list [1]>
 9 51934V2523546 Snarud nord     <chr [1]>    <named list [1]>
10 65271V443150  Vestby syd ny   <chr [1]>    <named list [1]>
# ℹ 8,106 more rows
…
stations[[1]] |> 
  map_df(~as_tibble(.)) |> 
  mutate(latestData = map_chr(latestData, unlist_safe))

# A tibble: 8,116 × 4
   id            name            latestData                location        
   <chr>         <chr>           <chr>                     <named list>    
 1 52742V2282262 ØRBEKK EV6      2024-10-06T00:00:00+02:00 <named list [1]>
 2 41517V704478  BASTERUD        2017-11-14T00:00:00+01:00 <named list [1]>
 3 01050V1126115 Trollvika       2024-10-06T00:00:00+02:00 <named list [1]>
 4 24748V22148   Pinesund        2024-10-06T00:00:00+02:00 <named list [1]>
 5 11446V1175840 Melsomvik       2024-10-06T00:00:00+02:00 <named list [1]>
 6 99015V249528  Hjelset øst     2023-05-09T00:00:00+02:00 <named list [1]>
 7 78755V249572  Sogge           2024-10-06T00:00:00+02:00 <named list [1]>
 8 83652V319725  Strandgata nord 2024-08-20T00:00:00+02:00 <named list [1]>
 9 51934V2523546 Snarud nord     2024-10-06T00:00:00+02:00 <named list [1]>
10 65271V443150  Vestby syd ny   2024-10-06T00:00:00+02:00 <named list [1]>
# ℹ 8,106 more rows

# Alternatively, we can use the defaults in map_chr. It will 
# now have a safe fallback value it can use if it doesn't 
# find the element we are looking for in latestData. 
# A simple solution is to use the .default-argument, and set this to missing: 
stations[[1]] |> 
    map_df(~as_tibble(.)) |> 
    mutate(latestData = map_chr(latestData,1, .default=NA_character_)) 

# A tibble: 8,116 × 4
   id            name            latestData                location        
   <chr>         <chr>           <chr>                     <named list>    
 1 52742V2282262 ØRBEKK EV6      2024-10-06T00:00:00+02:00 <named list [1]>
 2 41517V704478  BASTERUD        2017-11-14T00:00:00+01:00 <named list [1]>
 3 01050V1126115 Trollvika       2024-10-06T00:00:00+02:00 <named list [1]>
 4 24748V22148   Pinesund        2024-10-06T00:00:00+02:00 <named list [1]>
 5 11446V1175840 Melsomvik       2024-10-06T00:00:00+02:00 <named list [1]>
 6 99015V249528  Hjelset øst     2023-05-09T00:00:00+02:00 <named list [1]>
 7 78755V249572  Sogge           2024-10-06T00:00:00+02:00 <named list [1]>
 8 83652V319725  Strandgata nord 2024-08-20T00:00:00+02:00 <named list [1]>
 9 51934V2523546 Snarud nord     2024-10-06T00:00:00+02:00 <named list [1]>
10 65271V443150  Vestby syd ny   2024-10-06T00:00:00+02:00 <named list [1]>
# ℹ 8,106 more rows

7.2 Transforming time

# Next, let's format the date format. Date formats can be tricky, but is
# an obstacle you just have to learn to work with. We can reformat the 
# latestData column into a date by simply using as.Date - however - 
# we now have lost information on the time of day. Let's see if we 
# can retain all the information in the column. 
stations[[1]] |> 
  map_df(~as_tibble(.)) |> 
  mutate(latestData = map_chr(latestData, 1, .default=NA_character_)) |> 
  mutate(latestData = as.Date(latestData))

# A tibble: 8,116 × 4
   id            name            latestData location        
   <chr>         <chr>           <date>     <named list>    
 1 52742V2282262 ØRBEKK EV6      2024-10-06 <named list [1]>
 2 41517V704478  BASTERUD        2017-11-14 <named list [1]>
 3 01050V1126115 Trollvika       2024-10-06 <named list [1]>
 4 24748V22148   Pinesund        2024-10-06 <named list [1]>
 5 11446V1175840 Melsomvik       2024-10-06 <named list [1]>
 6 99015V249528  Hjelset øst     2023-05-09 <named list [1]>
 7 78755V249572  Sogge           2024-10-06 <named list [1]>
 8 83652V319725  Strandgata nord 2024-08-20 <named list [1]>
 9 51934V2523546 Snarud nord     2024-10-06 <named list [1]>
10 65271V443150  Vestby syd ny   2024-10-06 <named list [1]>
# ℹ 8,106 more rows

# There are several functions we can use to transform the string into
# a date time variable. as_datetime in lubridate works in this case. 
# Note that the interpretation of dates may be dependent on the time zone
# settings on your laptop. Here, we are explicitly stating that we want the
# a Europe/Berlin tz on the variable: 
stations[[1]] |> 
  map_df( ~ as_tibble(.)) |> 
  mutate(latestData = map_chr(latestData, 1, .default = NA_character_)) |> 
  mutate(latestData = as_datetime(latestData, tz = "Europe/Berlin")) 

# A tibble: 8,116 × 4
   id            name            latestData          location        
   <chr>         <chr>           <dttm>              <named list>    
 1 52742V2282262 ØRBEKK EV6      2024-10-06 00:00:00 <named list [1]>
 2 41517V704478  BASTERUD        2017-11-14 00:00:00 <named list [1]>
 3 01050V1126115 Trollvika       2024-10-06 00:00:00 <named list [1]>
 4 24748V22148   Pinesund        2024-10-06 00:00:00 <named list [1]>
 5 11446V1175840 Melsomvik       2024-10-06 00:00:00 <named list [1]>
 6 99015V249528  Hjelset øst     2023-05-09 00:00:00 <named list [1]>
 7 78755V249572  Sogge           2024-10-06 00:00:00 <named list [1]>
 8 83652V319725  Strandgata nord 2024-08-20 00:00:00 <named list [1]>
 9 51934V2523546 Snarud nord     2024-10-06 00:00:00 <named list [1]>
10 65271V443150  Vestby syd ny   2024-10-06 00:00:00 <named list [1]>
# ℹ 8,106 more rows
…
11446V1175840
Melsomvik
2024-10-06
59.22947
10.338938

99015V249528
Hjelset øst
2023-05-09
62.78733
7.521145

# A tibble: 8,116 × 6
   id            name            latestData          location       lat   lon
   <chr>         <chr>           <dttm>              <named list> <dbl> <dbl>
 1 52742V2282262 ØRBEKK EV6      2024-10-06 00:00:00 <named list>  60.4 11.2 
 2 41517V704478  BASTERUD        2017-11-14 00:00:00 <named list>  60.8 11.2 
 3 01050V1126115 Trollvika       2024-10-06 00:00:00 <named list>  69.2 18.0 
 4 24748V22148   Pinesund        2024-10-06 00:00:00 <named list>  58.8  9.05
 5 11446V1175840 Melsomvik       2024-10-06 00:00:00 <named list>  59.2 10.3 
 6 99015V249528  Hjelset øst     2023-05-09 00:00:00 <named list>  62.8  7.52
 7 78755V249572  Sogge           2024-10-06 00:00:00 <named list>  62.5  7.71
 8 83652V319725  Strandgata nord 2024-08-20 00:00:00 <named list>  58.9  5.74
 9 51934V2523546 Snarud nord     2024-10-06 00:00:00 <named list>  60.8 11.0 
10 65271V443150  Vestby syd ny   2024-10-06 00:00:00 <named list>  59.6 10.7 
# ℹ 8,106 more rows

# A tibble: 8,116 × 5
   id            name            latestData            lat   lon
   <chr>         <chr>           <dttm>              <dbl> <dbl>
 1 52742V2282262 ØRBEKK EV6      2024-10-06 00:00:00  60.4 11.2 
 2 41517V704478  BASTERUD        2017-11-14 00:00:00  60.8 11.2 
 3 01050V1126115 Trollvika       2024-10-06 00:00:00  69.2 18.0 
 4 24748V22148   Pinesund        2024-10-06 00:00:00  58.8  9.05
 5 11446V1175840 Melsomvik       2024-10-06 00:00:00  59.2 10.3 
 6 99015V249528  Hjelset øst     2023-05-09 00:00:00  62.8  7.52
 7 78755V249572  Sogge           2024-10-06 00:00:00  62.5  7.71
 8 83652V319725  Strandgata nord 2024-08-20 00:00:00  58.9  5.74
 9 51934V2523546 Snarud nord     2024-10-06 00:00:00  60.8 11.0 
10 65271V443150  Vestby syd ny   2024-10-06 00:00:00  59.6 10.7 
# ℹ 8,106 more rows
…
stations[[1]] |> 
  map_dfr(as_tibble) |>  
  mutate(latestData = map_chr(latestData, 1, .default = ""))  |> 
  mutate(latestData = as_datetime(latestData, tz = "Europe/Berlin"))  |> 
  mutate(location = map(location, unlist)) |>  
  mutate(
    lat = map_dbl(location, "latLon.lat"),
    lon = map_dbl(location, "latLon.lon")
  ) %>% 
  select(-location)

# A tibble: 8,116 × 5
   id            name            latestData            lat   lon
   <chr>         <chr>           <dttm>              <dbl> <dbl>
 1 52742V2282262 ØRBEKK EV6      2024-10-06 00:00:00  60.4 11.2 
 2 41517V704478  BASTERUD        2017-11-14 00:00:00  60.8 11.2 
 3 01050V1126115 Trollvika       2024-10-06 00:00:00  69.2 18.0 
 4 24748V22148   Pinesund        2024-10-06 00:00:00  58.8  9.05
 5 11446V1175840 Melsomvik       2024-10-06 00:00:00  59.2 10.3 
 6 99015V249528  Hjelset øst     2023-05-09 00:00:00  62.8  7.52
 7 78755V249572  Sogge           2024-10-06 00:00:00  62.5  7.71
 8 83652V319725  Strandgata nord 2024-08-20 00:00:00  58.9  5.74
 9 51934V2523546 Snarud nord     2024-10-06 00:00:00  60.8 11.0 
10 65271V443150  Vestby syd ny   2024-10-06 00:00:00  59.6 10.7 
# ℹ 8,106 more rows

## Alternatively, we can use unnest_wider twice. This one does some work
## for us, and gives the same result: 

stations[[1]] |> 
  map_df( ~ as_tibble(.)) |> 
  mutate(latestData = map_chr(latestData, 1, .default = NA_character_)) |> 
  mutate(latestData = as_datetime(latestData, tz = "Europe/Berlin"))  |> 
  unnest_wider(location) |> 
  unnest_wider(latLon)

# A tibble: 8,116 × 5
   id            name            latestData            lat   lon
   <chr>         <chr>           <dttm>              <dbl> <dbl>
 1 52742V2282262 ØRBEKK EV6      2024-10-06 00:00:00  60.4 11.2 
 2 41517V704478  BASTERUD        2017-11-14 00:00:00  60.8 11.2 
 3 01050V1126115 Trollvika       2024-10-06 00:00:00  69.2 18.0 
 4 24748V22148   Pinesund        2024-10-06 00:00:00  58.8  9.05
 5 11446V1175840 Melsomvik       2024-10-06 00:00:00  59.2 10.3 
 6 99015V249528  Hjelset øst     2023-05-09 00:00:00  62.8  7.52
 7 78755V249572  Sogge           2024-10-06 00:00:00  62.5  7.71
 8 83652V319725  Strandgata nord 2024-08-20 00:00:00  58.9  5.74
 9 51934V2523546 Snarud nord     2024-10-06 00:00:00  60.8 11.0 
10 65271V443150  Vestby syd ny   2024-10-06 00:00:00  59.6 10.7 
# ℹ 8,106 more rows
