BAN400 - R Programming for Data Science – iterations
…
Exercise:

We now want to apply this as_tibble transformation to each of the stations, and combine them in a single data frame. Transform the list into a data frame, with at id and name as columns, and one row per station. We can fix the date time and locations columns later, but use one of the map-functions from purrr.

Expand for solution

Using the map-function we traverse all the entries in the stations list, and transform these lists to data frames. We can then combine the list of data frames into a single data frame by calling list_rbind.

stations[[1]] |> 
  map(as_tibble) |> 
  list_rbind()

# A tibble: 6,436 x 4
   id            name                                    latestData location    
   <chr>         <chr>                                   <named li> <named list>
 1 03488V930472  "Gargiaveien"                           <chr [1]>  <named list>
 2 97522V320731  "Tengesdalsvegen ved \u00d8rland"       <chr [1]>  <named list>
 3 43362V3476463 "Sandvollkrysset rampe nordg\u00e5ende" <chr [1]>  <named list>
 4 77360V249592  "Tingvoll 1"                            <chr [1]>  <named list>
 5 83646V249592  "Tingvoll 2 "                           <chr [1]>  <named list>
 6 58140V578452  "Holmmo"                                <chr [1]>  <named list>
 7 36922V1175835 "Helgeroveien "                         <chr [1]>  <named list>
 8 45764V21901   "BERGEMOEN"                             <chr [1]>  <named list>
 9 01966V805141  "Wergeland"                             <chr [1]>  <named list>
10 01160V578603  "Eggerkj N"                             <chr [1]>  <named list>
# i 6,426 more rows
…
stations[[1]] |> 
  map(as_tibble) |> 
  list_rbind() |> 
  mutate(latestData = map_chr(latestData, unlist_safe))

# A tibble: 6,436 x 4
   id            name                                    latestData location    
   <chr>         <chr>                                   <chr>      <named list>
 1 03488V930472  "Gargiaveien"                           2023-09-1~ <named list>
 2 97522V320731  "Tengesdalsvegen ved \u00d8rland"       2023-09-0~ <named list>
 3 43362V3476463 "Sandvollkrysset rampe nordg\u00e5ende" 2023-10-0~ <named list>
 4 77360V249592  "Tingvoll 1"                            2023-06-0~ <named list>
 5 83646V249592  "Tingvoll 2 "                           2023-06-0~ <named list>
 6 58140V578452  "Holmmo"                                2023-06-1~ <named list>
 7 36922V1175835 "Helgeroveien "                         2023-03-2~ <named list>
 8 45764V21901   "BERGEMOEN"                             2023-10-0~ <named list>
 9 01966V805141  "Wergeland"                             2023-04-0~ <named list>
10 01160V578603  "Eggerkj N"                             2023-06-0~ <named list>
# i 6,426 more rows

Alternatively, we can use the defaults in map_chr. It will now have a safe fallback value it can use if it doesn’t find the element we are looking for in latestData. A simple solution is to use the .default-argument, and set this to missing:

stations[[1]] |> 
  map(as_tibble) |> 
  list_rbind() |> 
  mutate(
    latestData = map_chr(latestData,1, .default=NA_character_)
  ) 

# A tibble: 6,436 x 4
   id            name                                    latestData location    
   <chr>         <chr>                                   <chr>      <named list>
 1 03488V930472  "Gargiaveien"                           2023-09-1~ <named list>
 2 97522V320731  "Tengesdalsvegen ved \u00d8rland"       2023-09-0~ <named list>
 3 43362V3476463 "Sandvollkrysset rampe nordg\u00e5ende" 2023-10-0~ <named list>
 4 77360V249592  "Tingvoll 1"                            2023-06-0~ <named list>
 5 83646V249592  "Tingvoll 2 "                           2023-06-0~ <named list>
 6 58140V578452  "Holmmo"                                2023-06-1~ <named list>
 7 36922V1175835 "Helgeroveien "                         2023-03-2~ <named list>
 8 45764V21901   "BERGEMOEN"                             2023-10-0~ <named list>
 9 01966V805141  "Wergeland"                             2023-04-0~ <named list>
10 01160V578603  "Eggerkj N"                             2023-06-0~ <named list>
# i 6,426 more rows

7.2.3 Transforming time

Next, let’s format the date format. Date formats can be tricky, but is an obstacle you just have to learn to work with. We can reformat the latestData column into a date by simply using as.Date - however - we now have lost information on the time of day. Let’s see if we can retain all the information in the column.

stations[[1]] |> 
  map(as_tibble) |> 
  list_rbind() |> 
  mutate(latestData = map_chr(latestData, 1, .default=NA_character_)) |> 
  mutate(latestData = as.Date(latestData))

# A tibble: 6,436 x 4
   id            name                                    latestData location    
   <chr>         <chr>                                   <date>     <named list>
 1 03488V930472  "Gargiaveien"                           2023-09-13 <named list>
 2 97522V320731  "Tengesdalsvegen ved \u00d8rland"       2023-09-07 <named list>
 3 43362V3476463 "Sandvollkrysset rampe nordg\u00e5ende" 2023-10-04 <named list>
 4 77360V249592  "Tingvoll 1"                            2023-06-07 <named list>
 5 83646V249592  "Tingvoll 2 "                           2023-06-07 <named list>
 6 58140V578452  "Holmmo"                                2023-06-14 <named list>
 7 36922V1175835 "Helgeroveien "                         2023-03-27 <named list>
 8 45764V21901   "BERGEMOEN"                             2023-10-04 <named list>
 9 01966V805141  "Wergeland"                             2023-04-05 <named list>
10 01160V578603  "Eggerkj N"                             2023-06-07 <named list>
# i 6,426 more rows

There are several functions we can use to transform the string into a date time variable. as_datetime in lubridate works in this case. Note that the interpretation of dates may be dependent on the time zone settings on your laptop. Here, we are explicitly stating that we want the a Europe/Berlin tz on the variable:

stations[[1]] |> 
  map(as_tibble) |> 
  list_rbind() |> 
  mutate(latestData = map_chr(latestData, 1, .default = NA_character_)) |> 
  mutate(latestData = as_datetime(latestData, tz = "Europe/Berlin")) 

# A tibble: 6,436 x 4
   id            name                           latestData          location    
   <chr>         <chr>                          <dttm>              <named list>
 1 03488V930472  "Gargiaveien"                  2023-09-13 00:00:00 <named list>
 2 97522V320731  "Tengesdalsvegen ved \u00d8rl~ 2023-09-07 00:00:00 <named list>
 3 43362V3476463 "Sandvollkrysset rampe nordg\~ 2023-10-04 00:00:00 <named list>
 4 77360V249592  "Tingvoll 1"                   2023-06-07 00:00:00 <named list>
 5 83646V249592  "Tingvoll 2 "                  2023-06-07 00:00:00 <named list>
 6 58140V578452  "Holmmo"                       2023-06-14 00:00:00 <named list>
 7 36922V1175835 "Helgeroveien "                2023-03-27 00:00:00 <named list>
 8 45764V21901   "BERGEMOEN"                    2023-10-04 00:00:00 <named list>
 9 01966V805141  "Wergeland"                    2023-04-05 00:00:00 <named list>
10 01160V578603  "Eggerkj N"                    2023-06-07 00:00:00 <named list>
# i 6,426 more rows
…
We can use a similar solution we used before. First we use unlist to remove one level from the list, and then extract the contents using map_dbl - remember these are numbers, not text.

stations[[1]] |> 
  map(as_tibble) |> 
  list_rbind() |> 
  mutate(latestData = map_chr(latestData, 1, .default = ""))  |> 
  mutate(latestData = as_datetime(latestData, tz = "Europe/Berlin"))  |> 
  mutate(location = map(location, unlist)) |>  
  mutate(
    lat = map_dbl(location, "latLon.lat"),
    lon = map_dbl(location, "latLon.lon")
  ) %>% 
  select(-location)

# A tibble: 6,436 x 5
   id            name                            latestData            lat   lon
   <chr>         <chr>                           <dttm>              <dbl> <dbl>
 1 03488V930472  "Gargiaveien"                   2023-09-13 00:00:00  69.9 23.2 
 2 97522V320731  "Tengesdalsvegen ved \u00d8rla~ 2023-09-07 00:00:00  59.5  6.38
 3 43362V3476463 "Sandvollkrysset rampe nordg\u~ 2023-10-04 00:00:00  60.4 10.6 
 4 77360V249592  "Tingvoll 1"                    2023-06-07 00:00:00  62.9  8.20
 5 83646V249592  "Tingvoll 2 "                   2023-06-07 00:00:00  62.9  8.20
 6 58140V578452  "Holmmo"                        2023-06-14 00:00:00  64.8 13.4 
 7 36922V1175835 "Helgeroveien "                 2023-03-27 00:00:00  59.0 10.0 
 8 45764V21901   "BERGEMOEN"                     2023-10-04 00:00:00  58.3  8.56
 9 01966V805141  "Wergeland"                     2023-04-05 00:00:00  60.4  5.35
10 01160V578603  "Eggerkj N"                     2023-06-07 00:00:00  64.0 11.5 
# i 6,426 more rows

Alternatively, we can use unnest_wider twice. This one does some work for us, and gives the same result:

stations[[1]] |> 
  map(as_tibble) |> 
  list_rbind() |> 
  mutate(latestData = map_chr(latestData, 1, .default = NA_character_)) |> 
  mutate(latestData = as_datetime(latestData, tz = "Europe/Berlin"))  |> 
  unnest_wider(location) |> 
  unnest_wider(latLon)

# A tibble: 6,436 x 5
   id            name                            latestData            lat   lon
   <chr>         <chr>                           <dttm>              <dbl> <dbl>
 1 03488V930472  "Gargiaveien"                   2023-09-13 00:00:00  69.9 23.2 
 2 97522V320731  "Tengesdalsvegen ved \u00d8rla~ 2023-09-07 00:00:00  59.5  6.38
 3 43362V3476463 "Sandvollkrysset rampe nordg\u~ 2023-10-04 00:00:00  60.4 10.6 
 4 77360V249592  "Tingvoll 1"                    2023-06-07 00:00:00  62.9  8.20
 5 83646V249592  "Tingvoll 2 "                   2023-06-07 00:00:00  62.9  8.20
 6 58140V578452  "Holmmo"                        2023-06-14 00:00:00  64.8 13.4 
 7 36922V1175835 "Helgeroveien "                 2023-03-27 00:00:00  59.0 10.0 
 8 45764V21901   "BERGEMOEN"                     2023-10-04 00:00:00  58.3  8.56
 9 01966V805141  "Wergeland"                     2023-04-05 00:00:00  60.4  5.35
10 01160V578603  "Eggerkj N"                     2023-06-07 00:00:00  64.0 11.5 
# i 6,426 more rows
