making-maps – BAN400 - R Programming for Data Science
…
Rows: 22491 Columns: 3
── Column specification ────────────────────────────────────────────────────────
Delimiter: ";"
chr (2): municipality, party
dbl (1): votes

ℹ Use `spec()` to retrieve the full column specification for this data.
ℹ Specify the column types or set `show_col_types = FALSE` to quiet this message.

We inspect the first few rows to see what we have to work with:

votes

# A tibble: 2,586 × 3
   municipality party                     votes
   <chr>        <chr>                     <dbl>
 1 3101 Halden  Arbeiderpartiet            3001
 2 3101 Halden  Fremskrittspartiet         1051
 3 3101 Halden  Høyre                      4043
 4 3101 Halden  Kristelig Folkeparti        516
 5 3101 Halden  Miljøpartiet de Grønne      554
 6 3101 Halden  Rødt                        821
 7 3101 Halden  Senterpartiet               815
 8 3101 Halden  Sosialistisk Venstreparti   697
 9 3101 Halden  Venstre                     194
10 3101 Halden  Pensjonistpartiet          1439
# ℹ 2,576 more rows
…
votes_split <-
  votes %>% 
  separate(municipality,
           sep = " ",
           into = c("number", "municipality"),
           extra = "merge") %>% 
  # Convert the municipality number to a numeric column
  mutate(number = as.integer(number))

Confirming that this seems to have worked:

votes_split

# A tibble: 2,586 × 4
   number municipality party                     votes
    <int> <chr>        <chr>                     <dbl>
 1   3101 Halden       Arbeiderpartiet            3001
 2   3101 Halden       Fremskrittspartiet         1051
 3   3101 Halden       Høyre                      4043
 4   3101 Halden       Kristelig Folkeparti        516
 5   3101 Halden       Miljøpartiet de Grønne      554
 6   3101 Halden       Rødt                        821
 7   3101 Halden       Senterpartiet               815
 8   3101 Halden       Sosialistisk Venstreparti   697
 9   3101 Halden       Venstre                     194
10   3101 Halden       Pensjonistpartiet          1439
# ℹ 2,576 more rows
…
The resulting data frame looks like this, with one row per municipality containing the winning party and the number of votes:

winners

Simple feature collection with 21 features and 6 fields
Geometry type: GEOMETRY
Dimension:     XY
Bounding box:  xmin: 4.695385 ymin: 59.7 xmax: 6.3 ymax: 60.70301
Geodetic CRS:  WGS 84
# A tibble: 21 × 7
# Groups:   municipality [21]
     fid navn          number municipality party votes                  geometry
   <int> <chr>          <int> <chr>        <chr> <dbl>        <MULTIPOLYGON [°]>
 1   339 Alver           4631 Alver        Høyre  3010 (((5.421913 60.70301, 5.…
 2   228 Askøy           4627 Askøy        Høyre  3692 (((5.039113 60.49945, 5.…
 3    91 Austevoll       4625 Austevoll    Frem…   938 (((5.052234 59.96218, 5.…
 4   328 Bergen          4601 Bergen       Høyre 38798 (((5.686446 60.43576, 5.…
 5   119 Bjørnafjorden   4624 Bjørnafjord… Frem…  4656 (((5.368622 60.22528, 5.…
 6   275 Bømlo           4613 Bømlo        Høyre  1349 (((5.1439 59.74947, 5.14…
 7   100 Etne            4611 Etne         Frem…   575 (((6.3 59.95954, 6.29816…
 8   216 Fitjar          4615 Fitjar       Høyre   487 (((5.48319 59.91968, 5.4…
 9   208 Kvam            4622 Kvam         Arbe…  1127 (((6.3 60.50275, 6.29314…
10   267 Kvinnherad      4617 Kvinnherad   Høyre  1682 (((5.70948 60.03915, 5.7…
# ℹ 11 more rows
…
