assignment-01 – BAN400 - R Programming for Data Science
…
Note

This assignment is to be handed in as an .R-file through Canvas. Your answer will be reviewed by a teaching assistant as well as two fellow students. Do take the time to condsider the feedback. You will also receive two random answers from fellow students for review. Try to find one positive aspect as well as one suggestion for improvement in each of the answers. You must complete both peer reviews in order to pass the assignment.

Problem 1

We will look at the monthly returns on the NASDAQ composite stock index from August 2013 to June 2018, as well as the returns on 16 individual stocks listed on NASDAQ. The data is contained in the file data-nasdaq-returns.xls, and has been collected from the Yahoo Finance website.

Put the data in an appropriate folder on your computer. Perform the following tasks:

Read the data into R and take a first look at the data set. The main index is in the NASDAQ-column.

Click here to see how the top of the data set should look like after you have loaded it into R.

# A tibble: 59 × 11
   Date     NASDAQ    ADBE     AMZN     AAPL     BBBY     CSCO    CMCSA     COST
   <chr>     <dbl>   <dbl>    <dbl>    <dbl>    <dbl>    <dbl>    <dbl>    <dbl>
 1 2013-0… -0.0101 -0.0329 -0.0696   0.0739  -3.64e-2 -0.0933  -0.0686  -0.0484 
 2 2013-0…  0.0494  0.127   0.107   -0.0217   4.79e-2  0.00513  0.0695   0.0291 
 3 2013-1…  0.0386  0.0430  0.152    0.0920  -5.17e-4 -0.0378   0.0535   0.0243 
 4 2013-1…  0.0351  0.0461  0.0781   0.0619   9.14e-3 -0.0598   0.0466   0.0611 
 5 2013-1…  0.0283  0.0532  0.0130   0.00886  2.87e-2  0.0540   0.0412  -0.0525 
 6 2014-0… -0.0176 -0.0116 -0.106   -0.114   -2.29e-1 -0.0235   0.0466  -0.0576 
 7 2014-0…  0.0486  0.148   0.00946  0.0500   6.03e-2 -0.00503 -0.0520   0.0388 
 8 2014-0… -0.0257 -0.0430 -0.0737   0.0198   1.43e-2  0.0280  -0.0324  -0.0448 
 9 2014-0… -0.0203 -0.0636 -0.101    0.0948  -1.02e-1  0.0303   0.0338   0.0352 
10 2014-0…  0.0306  0.0452  0.0273   0.0702  -2.08e-2  0.0633   0.00846  0.00293
# ℹ 49 more rows
# ℹ 2 more variables: DLTR <dbl>, EXPE <dbl>

Make a new data frame containing only the date column and returns on the main index as well as one of the individual stocks of your choosing. Name the new data frame appropriately.

Click here to see how the top of the new data set should look like.

For example, after picking ADBE as the stock:

# A tibble: 59 × 3
   Date        NASDAQ    ADBE
   <chr>        <dbl>   <dbl>
 1 2013-08-01 -0.0101 -0.0329
 2 2013-09-01  0.0494  0.127 
 3 2013-10-01  0.0386  0.0430
 4 2013-11-01  0.0351  0.0461
 5 2013-12-01  0.0283  0.0532
 6 2014-01-01 -0.0176 -0.0116
 7 2014-02-01  0.0486  0.148 
 8 2014-03-01 -0.0257 -0.0430
 9 2014-04-01 -0.0203 -0.0636
10 2014-05-01  0.0306  0.0452
# ℹ 49 more rows
…
The function sign(x) returns the sign of x, that is, it returns -1 if x is negative and 1 if x is positive. Make two new columns, named sign_NASDAQ and a corresponding name for the stock that you have chosen to include, that contains the sign of the return, indicating whether the index or stock went up or down that day.

Click here to see how the top of the new data set should look like.

# A tibble: 59 × 5
   Date        NASDAQ    ADBE NASDAQ_sign ADBE_sign
   <chr>        <dbl>   <dbl>       <dbl>     <dbl>
 1 2013-08-01 -0.0101 -0.0329          -1        -1
 2 2013-09-01  0.0494  0.127            1         1
 3 2013-10-01  0.0386  0.0430           1         1
 4 2013-11-01  0.0351  0.0461           1         1
 5 2013-12-01  0.0283  0.0532           1         1
 6 2014-01-01 -0.0176 -0.0116          -1        -1
 7 2014-02-01  0.0486  0.148            1         1
 8 2014-03-01 -0.0257 -0.0430          -1        -1
 9 2014-04-01 -0.0203 -0.0636          -1        -1
10 2014-05-01  0.0306  0.0452           1         1
# ℹ 49 more rows

Make another column consisting of the sum of the two sign columns divided by two. The resulting value will then be -1 if both the index and the stock went down that day, 0 if they went in separate directions, and 1 if both went up.

Click here to see how the top of the new data set should look like.

# A tibble: 59 × 6
   Date        NASDAQ    ADBE NASDAQ_sign ADBE_sign   sum
   <chr>        <dbl>   <dbl>       <dbl>     <dbl> <dbl>
 1 2013-08-01 -0.0101 -0.0329          -1        -1    -1
 2 2013-09-01  0.0494  0.127            1         1     1
 3 2013-10-01  0.0386  0.0430           1         1     1
 4 2013-11-01  0.0351  0.0461           1         1     1
 5 2013-12-01  0.0283  0.0532           1         1     1
 6 2014-01-01 -0.0176 -0.0116          -1        -1    -1
 7 2014-02-01  0.0486  0.148            1         1     1
 8 2014-03-01 -0.0257 -0.0430          -1        -1    -1
 9 2014-04-01 -0.0203 -0.0636          -1        -1    -1
10 2014-05-01  0.0306  0.0452           1         1     1
# ℹ 49 more rows
…
